…
```{r}
#install.packages("devtools")
library(devtools)
#install_github("dgrtwo/widyr")
library(widyr)

# remove punctuation, convert to lowercase, add id for each tweet!
fin_tweets_paired_words <- fin %>%
  dplyr::select(stripped_text) %>%
  unnest_tokens(paired_words, stripped_text, token = "ngrams", n = 2)

fin_tweets_paired_words %>%
  count(paired_words, sort = TRUE)
## # A tibble: 134,656 x 2
##    paired_words         n
##    <chr>            <int>
##  1 fin change    1021
##  2 of the             804
##  3 in the             798
##  4 finchange is   570
##  5 is a               442
##  6 of finchange   437
##  7 on the             383
##  8 on finchange   364
##  9 to the             354
## 10 this is            331
## # … with 134,646 more rows
…
